<svg width="10" height="12" viewBox="0 0 10 12" fill="none" xmlns="http://www.w3.org/2000/svg">
<path d="M9.08301 9.71346L7.29976 11.1011L0.333004 5.55064L7.29976 0.000197534L9.08301 1.38781L3.83301 5.55064L9.08301 9.71346Z" fill="#032A70"/>
</svg>
